…
`stm` objects have a `summary()` method for displaying words with highest probability in each topic. But we want to go back to data frames to take advantage of `dplyr` and `ggplot2`. For tidying model objects, `tidy(model_object, matrix = "beta")` (the default) access the topic-word probability vector (we denotes with $\vec{\phi_k}$)  


```r
tidy(ap_lda)
#> # A tibble: 20,946 x 3
#>   topic term            beta
#>   <int> <chr>          <dbl>
#> 1     1 aaron     0.0000324 
#> 2     2 aaron     0.0000117 
#> 3     1 abandon   0.00000654
#> 4     2 abandon   0.0000676 
#> 5     1 abandoned 0.000140  
#> 6     2 abandoned 0.0000341 
#> # ... with 20,940 more rows
```
…
<img src="topic-modeling_files/figure-html/unnamed-chunk-8-1.png" width="672" style="display: block; margin: auto;" />


To extrac the word proportion vector $\vec{\theta_m}$ for document $m$, use `matrix = "gamma"` in `tidy()`  


```r
tidy(ap_lda, matrix = "gamma")
#> # A tibble: 4,492 x 3
#>   document topic gamma
#>      <int> <int> <dbl>
#> 1        1     1 0.990
#> 2        2     1 0.610
#> 3        3     1 0.983
#> 4        4     1 0.698
#> 5        5     1 0.891
#> 6        6     1 0.519
#> # ... with 4,486 more rows
```
…
# find document-word counts
word_counts <- by_chapter %>%
  unnest_tokens(word, text) %>% 
  anti_join(stop_words) %>%
  rename(chapter = document) %>% 
  count(chapter, word, sort = TRUE) %>%
  ungroup()

word_counts
#> # A tibble: 104,722 x 3
#>   chapter               word        n
#>   <chr>                 <chr>   <int>
#> 1 Great Expectations_57 joe        88
#> 2 Great Expectations_7  joe        70
#> 3 Great Expectations_17 biddy      63
#> 4 Great Expectations_27 joe        58
#> 5 Great Expectations_38 estella    58
#> 6 Great Expectations_2  joe        56
#> # ... with 104,716 more rows
```
…
```r
chapters_dfm <- word_counts %>% 
  cast_dfm(document = chapter, term = word, value = n)

chapters_lda <- stm(chapters_dfm, K = 4, init.type = "LDA", verbose = FALSE)
```


Much as we did on the Associated Press data, we can examine per-topic-per-word probabilities.  


```r
chapter_topics <- tidy(chapters_lda, matrix = "beta")
chapter_topics
#> # A tibble: 72,860 x 3
#>   topic term              beta
#>   <int> <chr>            <dbl>
#> 1     1 _accident_   0.0000263
#> 2     2 _accident_   0        
#> 3     3 _accident_   0        
#> 4     4 _accident_   0        
#> 5     1 _advantages_ 0.0000263
#> 6     2 _advantages_ 0        
#> # ... with 72,854 more rows
```
…
### Per-document classification

We may want to how and which topics are associated with each document, in particular, the majority of chapters in the same book should belong to the same topic (if we assign a chapter$_m$ to a topic$_k$ when the $k$th postion in $\hat{\theta}_m$ is significantly higher).  


```r
chapters_gamma <- tidy(chapters_lda,
                       matrix = "gamma",
                       document_names = rownames(chapters_dfm)) %>% 
  separate(document, c("title", "chapter"), sep = "_", convert = TRUE) %>% 
  mutate(topic = factor(topic) %>% fct_inseq())

chapters_gamma
#> # A tibble: 772 x 4
#>   title              chapter topic    gamma
#>   <chr>                <int> <fct>    <dbl>
#> 1 Great Expectations      57 1     0.00602 
#> 2 Great Expectations       7 1     0.0149  
#> 3 Great Expectations      17 1     0.0403  
#> 4 Great Expectations      27 1     0.000570
#> 5 Great Expectations      38 1     0.0281  
#> 6 Great Expectations       2 1     0.000461
#> # ... with 766 more rows
```
…
As we see here, topci modeling can be viewed as text classification to some degree. We can find the topic that was most associated with each chapter using `top_n()`, which is essentially the "classification" of that chapter. For example, the 57th chapter of *Great Expectations* are assigned to topic 1.


```r
chapter_classifications <- chapters_gamma %>%
  group_by(title, chapter) %>%
  top_n(1, gamma) %>%
  ungroup()

chapter_classifications
#> # A tibble: 193 x 4
#>   title               chapter topic gamma
#>   <chr>                 <int> <fct> <dbl>
#> 1 Pride and Prejudice      43 1     0.994
#> 2 Pride and Prejudice      18 1     1.00 
#> 3 Pride and Prejudice      45 1     0.999
#> 4 Pride and Prejudice      16 1     0.999
#> 5 Pride and Prejudice      29 1     0.999
#> 6 Pride and Prejudice      10 1     0.999
#> # ... with 187 more rows
```
…
One step of the LDA algorithm is assigning each word in each document to a topic $z_{m, n}$. The more words in a document are assigned to that topic, generally, the more weight $\theta_m$ will go on that document-topic classification.

We may want to take the original document-word pairs and find which words in each document were assigned to which topic. This is the job of the `augment()` function, which is to add information to each observation in the original data.  


```r
assignments <- augment(chapters_lda, data = chapters_dfm) %>% 
  transmute(chapter = document, 
            term,
            count,
            topic = factor(.topic))

assignments
#> # A tibble: 104,722 x 4
#>   chapter               term  count topic
#>   <chr>                 <chr> <dbl> <fct>
#> 1 Great Expectations_57 joe      88 4    
#> 2 Great Expectations_7  joe      70 4    
#> 3 Great Expectations_17 joe       5 4    
#> 4 Great Expectations_27 joe      58 4    
#> 5 Great Expectations_2  joe      56 4    
#> 6 Great Expectations_23 joe       1 4    
#> # ... with 104,716 more rows
```
…
<img src="topic-modeling_files/figure-html/unnamed-chunk-26-1.png" width="672" style="display: block; margin: auto;" />


We can combine this assignments table with the `classification` to find which words were incorrectly classified by a coofusion matrix.  


```r
assignments <- assignments %>%
  separate(chapter, c("title", "chapter"), sep = "_", convert = TRUE) %>%
  left_join(classification, by = c("topic" = "topic"))

# misidentified words
assignments %>% 
  filter(title != assigned_book)
#> # A tibble: 7,173 x 6
#>   title                   chapter term    count topic assigned_book             
#>   <chr>                     <int> <chr>   <dbl> <fct> <chr>                     
#> 1 Twenty Thousand League~       8 miss        1 4     Great Expectations        
#> 2 Great Expectations            5 sergea~    37 3     The War of the Worlds     
#> 3 Great Expectations           46 captain     1 2     Twenty Thousand Leagues u~
#> 4 Great Expectations           32 captain     1 2     Twenty Thousand Leagues u~
#> 5 The War of the Worlds        17 captain     5 2     Twenty Thousand Leagues u~
#> 6 Pride and Prejudice           7 captain     3 2     Twenty Thousand Leagues u~
#> # ... with 7,167 more rows
```
…
<img src="topic-modeling_files/figure-html/unnamed-chunk-28-1.png" width="960" style="display: block; margin: auto;" />

What were the most commonly mistaken words?  


```r
assignments %>% 
  filter(title != assigned_book) %>% 
  count(title, assigned_book, term, wt = count) %>%
  arrange(desc(n))
#> # A tibble: 4,265 x 4
#>   title              assigned_book         term        n
#>   <chr>              <chr>                 <chr>   <dbl>
#> 1 Great Expectations The War of the Worlds joe's      55
#> 2 Great Expectations The War of the Worlds orlick     51
#> 3 Great Expectations The War of the Worlds black      50
#> 4 Great Expectations The War of the Worlds night      49
#> 5 Great Expectations The War of the Worlds water      46
#> 6 Great Expectations The War of the Worlds kitchen    42
#> # ... with 4,259 more rows
```
…
